Reproducible Research Project
…
Click to show Python code

  df.head(10)

drop_col(df, 'Duration')

## # A tibble: 10,682 × 15
##    Airline           Source  Destination Route Total_Stops Additional_Info Price
##    <chr>             <chr>   <chr>       <chr> <chr>       <chr>           <dbl>
##  1 IndiGo            Banglo… New Delhi   BLR … non-stop    No info          3897
##  2 Air India         Kolkata Banglore    CCU … 2 stops     No info          7662
##  3 Jet Airways       Delhi   Cochin      DEL … 2 stops     No info         13882
##  4 IndiGo            Kolkata Banglore    CCU … 1 stop      No info          6218
##  5 IndiGo            Banglo… New Delhi   BLR … 1 stop      No info         13302
##  6 SpiceJet          Kolkata Banglore    CCU … non-stop    No info          3873
##  7 Jet Airways       Banglo… New Delhi   BLR … 1 stop      In-flight meal… 11087
##  8 Jet Airways       Banglo… New Delhi   BLR … 1 stop      No info         22270
##  9 Jet Airways       Banglo… New Delhi   BLR … 1 stop      In-flight meal… 11087
## 10 Multiple carriers Delhi   Cochin      DEL … 1 stop      No info          8625
## # ℹ 10,672 more rows
## # ℹ 8 more variables: journey_day <dbl>, journey_month <dbl>,
## #   Dep_Time_hour <int>, Dep_Time_min <int>, Arrival_Time_hour <int>,
## #   Arrival_Time_min <int>, dur_hour <dbl>, dur_min <dbl>
…
